…
    ##  [1] "Oct_21" "Nov_21" "Dec_21" "Jan_22" "Feb_22" "Mar_22" "Apr_22" "May_22"
    ##  [9] "Jun_22" "Jul_22" "Aug_22" "Sep_22"

``` r
all_trips_v2 %>% 
  group_by(customer_type, month) %>%  
  summarise(number_of_rides = n(),`average_duration_(mins)` = mean(trip_duration)) %>% 
arrange(customer_type,desc(number_of_rides))
```

    ## `summarise()` has grouped output by 'customer_type'. You can override using the
    ## `.groups` argument.

    ## # A tibble: 24 × 4
    ## # Groups:   customer_type [2]
    ##    customer_type month  number_of_rides `average_duration_(mins)`
    ##    <chr>         <ord>            <int>                     <dbl>
    ##  1 casual        Jul_22          406046                      29.3
    ##  2 casual        Jun_22          369044                      32.1
    ##  3 casual        Aug_22          358917                      29.3
    ##  4 casual        Sep_22          296694                      28.0
    ##  5 casual        May_22          280414                      30.9
    ##  6 casual        Oct_21          257242                      28.7
    ##  7 casual        Apr_22          126417                      29.5
    ##  8 casual        Nov_21          106898                      23.1
    ##  9 casual        Mar_22           89880                      32.6
    ## 10 casual        Dec_21           69738                      23.5
    ## # ℹ 14 more rows
…
